lab6/Mux21.vcd
$date
	Thu Jun 30 15:45:28 2016
$end
$version
	Icarus Verilog
$end
$timescale
	1ps
$end
$scope module Mux21Test $end
$var wire 1 ! out $end
$var reg 2 " in [1:0] $end
$var reg 8 # passed [7:0] $end
$var reg 1 $ sel $end
$scope module uut $end
$var wire 1 % a0 $end
$var wire 1 & a1 $end
$var wire 2 ' in [1:0] $end
$var wire 1 ( ns $end
$var wire 1 ! out $end
$var wire 1 $ sel $end
$upscope $end
$scope task allPassed $end
$var reg 8 ) numTests [7:0] $end
$var reg 8 * passed [7:0] $end
$upscope $end
$scope task passTest $end
$var reg 1 + actualOut $end
$var reg 1 , expectedOut $end
$var reg 8 - passed [7:0] $end
$var reg 121 . testType [120:0] $end
$upscope $end
$scope task stim $end
$var reg 2 / newIn [1:0] $end
$var reg 1 0 newSel $end
$var reg 2 1 setIn [1:0] $end
$var reg 1 2 setSel $end
$upscope $end
$upscope $end
$enddefinitions $end
#0
$dumpvars
x2
bx 1
00
b0 /
bx .
bx -
x,
x+
bx *
bx )
1(
b0 '
0&
0%
0$
b0 #
b0 "
0!
$end
#90000
02
b0 1
#100000
b1 /
b1 #
b1 -
b101001101100101011011000110010101100011011101000010000001000110011010010111001001110011011101000010000000110000 .
0,
0+
#190000
1!
1&
b1 "
b1 '
b1 1
#200000
b10 /
b10 #
b10 -
b101001101100101011011000110010101100011011101000010000001000110011010010111001001110011011101000010000000110001 .
1,
1+
#290000
0!
0&
b10 "
b10 '
b10 1
#300000
b11 /
b11 #
b11 -
b101001101100101011011000110010101100011011101000010000001000110011010010111001001110011011101000010000000110010 .
0,
0+
#390000
1!
1&
b11 "
b11 '
b11 1
#400000
10
b0 /
b100 #
b100 -
b101001101100101011011000110010101100011011101000010000001000110011010010111001001110011011101000010000000110011 .
1,
1+
#490000
0!
0&
0(
1$
b0 "
b0 '
12
b0 1
#500000
b1 /
b101 #
b101 -
b10100110110010101101100011001010110001101110100001000000101001101100101011000110110111101101110011001000010000000110000 .
0,
0+
#590000
b1 "
b1 '
b1 1
#600000
b10 /
b110 #
b110 -
b10100110110010101101100011001010110001101110100001000000101001101100101011000110110111101101110011001000010000000110001 .
#690000
1!
1%
b10 "
b10 '
b10 1
#700000
b11 /
b111 #
b111 -
b10100110110010101101100011001010110001101110100001000000101001101100101011000110110111101101110011001000010000000110010 .
1,
1+
#790000
b11 "
b11 '
b11 1
#800000
b1000 )
b1000 *
b1000 #
b1000 -
b10100110110010101101100011001010110001101110100001000000101001101100101011000110110111101101110011001000010000000110011 .
